<svg id="password" xmlns="http://www.w3.org/2000/svg" width="47.833" height="54.667" viewBox="0 0 47.833 54.667">
  <g id="Group_7" data-name="Group 7">
    <g id="Group_6" data-name="Group 6">
      <circle id="Ellipse_5" data-name="Ellipse 5" cx="2" cy="2" r="2" transform="translate(33.833 34.667)" fill="#5d5d5d"/>
      <path id="Path_23" data-name="Path 23" d="M77.7,38.651a2.135,2.135,0,0,0,2.135-2.135v-7.9a8.551,8.551,0,0,0-8.542-8.542H68.725V12.542a12.815,12.815,0,0,0-25.625,0v7.531H40.542A8.551,8.551,0,0,0,32,28.615v17.51a8.551,8.551,0,0,0,8.542,8.542h30.75a8.551,8.551,0,0,0,8.542-8.542,2.135,2.135,0,1,0-4.271,0A4.276,4.276,0,0,1,71.292,50.4H40.542a4.276,4.276,0,0,1-4.271-4.271V28.615a4.276,4.276,0,0,1,4.271-4.271h30.75a4.276,4.276,0,0,1,4.271,4.271v7.9A2.135,2.135,0,0,0,77.7,38.651ZM64.454,20.073H47.371V12.542a8.546,8.546,0,0,1,17.083,0Z" transform="translate(-32)" fill="#5d5d5d"/>
      <circle id="Ellipse_6" data-name="Ellipse 6" cx="2" cy="2" r="2" transform="translate(17.833 34.667)" fill="#5d5d5d"/>
      <circle id="Ellipse_7" data-name="Ellipse 7" cx="2" cy="2" r="2" transform="translate(9.833 34.667)" fill="#5d5d5d"/>
      <circle id="Ellipse_8" data-name="Ellipse 8" cx="2" cy="2" r="2" transform="translate(25.833 34.667)" fill="#5d5d5d"/>
    </g>
  </g>
</svg>
