<svg id="gps-fixed-indicator" xmlns="http://www.w3.org/2000/svg" width="33.533" height="33.533" viewBox="0 0 33.533 33.533">
  <g id="gps-fixed">
    <path id="Path_1" data-name="Path 1" d="M16.766,10.67a6.1,6.1,0,1,0,6.1,6.1A6.115,6.115,0,0,0,16.766,10.67Zm13.566,4.573A13.614,13.614,0,0,0,18.291,3.2V0H15.242V3.2A13.337,13.337,0,0,0,3.2,15.242H0v3.048H3.2A13.614,13.614,0,0,0,15.242,30.332v3.2h3.048v-3.2A13.614,13.614,0,0,0,30.332,18.291h3.2V15.242ZM16.766,27.436a10.67,10.67,0,1,1,10.67-10.67A10.6,10.6,0,0,1,16.766,27.436Z" fill="#fff"/>
  </g>
</svg>
