<svg id="Group_15" data-name="Group 15" xmlns="http://www.w3.org/2000/svg" width="42.703" height="42.703" viewBox="0 0 42.703 42.703">
  <path id="Path_37" data-name="Path 37" d="M40.517,16.87l-3-.508a16.924,16.924,0,0,0-1.2-2.908l1.766-2.471a2.63,2.63,0,0,0-.285-3.4L35.138,4.925a2.619,2.619,0,0,0-1.864-.776,2.592,2.592,0,0,0-1.525.491l-2.48,1.766a16.748,16.748,0,0,0-3.015-1.24l-.5-2.962a2.635,2.635,0,0,0-2.6-2.2H19.393a2.635,2.635,0,0,0-2.6,2.2l-.517,3.033a16.507,16.507,0,0,0-2.9,1.222L10.919,4.693a2.635,2.635,0,0,0-3.4.285L4.853,7.637a2.641,2.641,0,0,0-.285,3.4l1.784,2.507a16.531,16.531,0,0,0-1.186,2.917l-2.962.5a2.635,2.635,0,0,0-2.2,2.6v3.756a2.635,2.635,0,0,0,2.2,2.6l3.033.517a16.507,16.507,0,0,0,1.222,2.9L4.7,31.785a2.63,2.63,0,0,0,.285,3.4l2.658,2.658a2.619,2.619,0,0,0,1.864.776,2.592,2.592,0,0,0,1.525-.491l2.507-1.784A16.876,16.876,0,0,0,16.36,37.5l.5,3a2.635,2.635,0,0,0,2.6,2.2h3.764a2.635,2.635,0,0,0,2.6-2.2l.508-3a16.924,16.924,0,0,0,2.908-1.2l2.471,1.766a2.619,2.619,0,0,0,1.534.491h0a2.619,2.619,0,0,0,1.864-.776l2.658-2.658a2.641,2.641,0,0,0,.285-3.4L36.3,29.243a16.8,16.8,0,0,0,1.2-2.908l3-.5a2.635,2.635,0,0,0,2.2-2.6V19.475A2.6,2.6,0,0,0,40.517,16.87Zm-.205,6.36a.231.231,0,0,1-.2.232l-3.747.624a1.2,1.2,0,0,0-.963.883,14.28,14.28,0,0,1-1.552,3.738,1.206,1.206,0,0,0,.054,1.311l2.2,3.1a.243.243,0,0,1-.027.3l-2.658,2.658a.227.227,0,0,1-.169.071.219.219,0,0,1-.134-.045l-3.1-2.2a1.205,1.205,0,0,0-1.311-.054,14.281,14.281,0,0,1-3.738,1.552,1.184,1.184,0,0,0-.883.963l-.633,3.747a.231.231,0,0,1-.232.2H19.474a.231.231,0,0,1-.232-.2l-.624-3.747a1.2,1.2,0,0,0-.883-.963,14.828,14.828,0,0,1-3.657-1.5,1.235,1.235,0,0,0-.607-.161,1.175,1.175,0,0,0-.7.223L9.652,36.192a.265.265,0,0,1-.134.045.239.239,0,0,1-.169-.071L6.69,33.507a.242.242,0,0,1-.027-.3l2.194-3.078a1.221,1.221,0,0,0,.054-1.32,14.146,14.146,0,0,1-1.57-3.729,1.222,1.222,0,0,0-.963-.883L2.6,23.551a.231.231,0,0,1-.2-.232V19.564a.231.231,0,0,1,.2-.232l3.72-.624a1.206,1.206,0,0,0,.972-.892,14.266,14.266,0,0,1,1.525-3.747,1.191,1.191,0,0,0-.062-1.3L6.539,9.644a.243.243,0,0,1,.027-.3L9.224,6.682a.227.227,0,0,1,.169-.071.219.219,0,0,1,.134.045L12.6,8.85a1.221,1.221,0,0,0,1.32.054,14.146,14.146,0,0,1,3.729-1.57,1.222,1.222,0,0,0,.883-.963L19.179,2.6a.231.231,0,0,1,.232-.2h3.756a.231.231,0,0,1,.232.2l.624,3.72a1.206,1.206,0,0,0,.892.972,14.479,14.479,0,0,1,3.827,1.57,1.206,1.206,0,0,0,1.311-.054l3.078-2.212a.265.265,0,0,1,.134-.045.239.239,0,0,1,.169.071l2.658,2.658a.242.242,0,0,1,.027.3l-2.2,3.1a1.205,1.205,0,0,0-.054,1.311,14.28,14.28,0,0,1,1.552,3.738,1.184,1.184,0,0,0,.963.883l3.747.633a.231.231,0,0,1,.2.232V23.23Z" transform="translate(0 -0.001)" fill="#5d5d5d"/>
  <path id="Path_38" data-name="Path 38" d="M145.315,136a9.215,9.215,0,1,0,9.215,9.215A9.221,9.221,0,0,0,145.315,136Zm0,16.021a6.806,6.806,0,1,1,6.806-6.806A6.811,6.811,0,0,1,145.315,152.022Z" transform="translate(-123.959 -123.869)" fill="#5d5d5d"/>
</svg>
